Bridge to tidymodels
…
.pull-right[
.small[
tidymodels model + augment():

```r
tidy_ht_wt <- linear_reg() %>%
  set_engine("lm") %>%
  fit(Height_in ~ Width_in, data = pp)
tidy_ht_wt_aug <- augment(tidy_ht_wt$fit)
tidy_ht_wt_aug
```
]]

```
## # A tibble: 3,135 x 9
##   .rownames Height_in Width_in .fitted .resid .std.resid     .hat .sigma   .cooksd
##   <chr>         <dbl>    <dbl>   <dbl>  <dbl>      <dbl>    <dbl>  <dbl>     <dbl>
## 1 1                37     29.5    26.7  10.3       1.25  0.000399   8.30 0.000310 
## 2 2                18     14      14.6   3.45      0.415 0.000396   8.31 0.0000342
## 3 3                13     16      16.1  -3.11     -0.375 0.000361   8.31 0.0000254
## 4 4                14     18      17.7  -3.68     -0.443 0.000337   8.31 0.0000330
## 5 5                14     18      17.7  -3.68     -0.443 0.000337   8.31 0.0000330
## 6 6                 7     10      11.4  -4.43     -0.534 0.000498   8.31 0.0000709
## # … with 3,129 more rows
```
…
